<svg width="56" height="73" viewBox="0 0 56 73" fill="none" xmlns="http://www.w3.org/2000/svg">
<path d="M55.2064 45.092C54.9584 44.7474 54.7249 44.3913 54.464 44.0598C53.9724 43.437 52.4572 43.3187 51.7522 43.1457C51.1554 42.9987 50.5513 42.8574 49.9631 42.6743C49.2985 42.4667 49.0837 42.2173 48.5676 41.8065C47.9145 41.2918 46.0562 41.0784 46.1096 42.3802L46.1874 44.4533C46.1874 44.4533 43.2465 45.4596 43.1585 45.4899C42.1984 45.8186 40.8101 46.1055 40.2824 47.0872L33.4995 36.5516L29.9876 31.2045C29.9573 31.1599 30.3192 30.5457 30.3192 30.4189C30.3177 29.9373 29.9299 29.4443 29.7843 28.983C29.5609 28.2708 29.3879 27.5341 29.2163 26.8046C29.0404 26.0564 28.8631 25.2923 28.7925 24.5239C28.7651 24.2399 28.6901 23.3216 28.9453 23.14C29.4801 22.7565 29.7742 24.1347 30.2572 24.3091C30.9117 24.5484 30.965 24.2082 31.4826 24.6667C31.7652 24.9146 32.8349 26.8767 33.2587 26.7369L35.414 29.5293L37.0099 30.0873C37.0099 30.0873 37.7278 30.5673 36.5313 31.2045C36.5313 31.2045 35.254 32.5626 37.1699 32.1632C37.1699 32.1632 39.4838 31.8432 39.4045 31.2045C39.4045 31.2045 41.1604 29.5293 38.8451 27.8527C38.6505 27.7129 38.1272 27.2155 38.1272 27.2155C37.1699 25.6181 34.696 22.7449 34.696 22.7449L33.9766 20.9904C33.1246 19.2561 32.5177 17.3748 31.3932 15.7832C30.8439 15.0062 30.1635 14.4035 29.4254 13.8125C28.6425 13.1882 27.8352 12.5899 26.9472 12.1229C26.2753 11.7725 25.4406 11.5188 25.024 10.8383C24.7602 10.4102 24.208 10.4476 23.9615 10.0079C23.8375 9.79169 23.5694 8.64414 23.7625 8.45961C23.7625 8.45961 25.6771 6.62439 23.604 5.10777C23.604 5.10777 26.1571 0.160023 19.2934 0C19.2934 0 12.9084 2.39458 16.2602 6.14432C16.2602 6.14432 16.1002 9.01898 17.0574 8.77966L18.0954 11.4121C18.0954 11.4121 16.4274 11.97 16.4188 11.9715C16.6696 11.8893 15.3101 10.4404 15.1732 10.3438C14.2851 9.71961 13.2918 9.26838 12.4326 8.59368C12.0304 8.2794 11.1582 7.7633 10.9405 7.29188C10.557 6.46148 11.448 5.53162 11.5359 4.73583C11.6138 4.0424 11.1856 3.53349 10.7862 3.02026C10.5484 2.71175 10.3653 1.98948 10.0553 1.78909C9.78574 1.61465 8.65116 1.64925 8.42915 1.91739C8.15956 2.236 8.3412 2.88331 8.06585 3.29274C7.68813 3.8593 7.56704 3.95301 7.642 4.62914C7.68381 5.03424 7.74724 5.44079 7.83951 5.83725C7.88996 6.05493 7.92889 6.39949 8.06296 6.58402C8.26479 6.84928 8.51564 6.93723 8.70305 7.23421C8.88903 7.52542 9.04472 7.83971 9.23358 8.13236C9.54498 8.61531 9.9126 9.0752 10.2024 9.57257C10.8987 10.7648 11.5806 11.97 12.2697 13.168C12.5263 13.5977 12.7873 14.0258 13.0439 14.4569C13.4836 15.182 13.6277 15.2642 14.4495 15.3666C15.4947 15.4963 15.4889 16.5833 15.3318 17.3517C15.1631 18.185 14.9223 18.9793 14.9223 19.8357C14.9238 21.2096 15.3029 22.5691 15.3029 23.9415C15.3029 23.9415 16.0987 30.7937 16.1002 30.8052C16.3928 33.4391 16.4303 36.197 15.4284 38.6954C14.9137 39.9828 14.1165 40.8651 13.0468 41.7185C11.6037 42.8704 10.8281 44.2919 9.94432 45.8604C9.14277 47.2818 7.70543 48.4568 7.40701 50.1233C7.23978 51.0575 7.54686 51.9355 7.72851 52.8423C8.42915 56.3556 8.31237 60.0909 8.15379 63.6561C8.15379 63.685 8.04422 65.0185 7.88275 64.8858C7.86257 64.8686 6.86495 65.5404 6.82891 65.5606C6.80872 65.5663 6.83468 65.5231 6.84044 65.5216C6.12106 65.8965 5.31229 66.4126 4.51362 66.5769C3.25217 66.835 1.63753 66.9359 0.546197 67.6726C-0.993487 68.7149 1.11997 69.6289 2.0037 69.959C5.0874 71.1022 8.52141 70.7274 11.7911 70.9494C11.7911 70.9494 13.5456 70.4722 12.5897 67.279C12.5609 65.9945 12.5624 64.7071 12.6272 63.424C12.7022 61.9694 13.1087 60.5941 13.5802 59.2259C14.0617 57.8275 14.0747 57.0634 13.9795 55.6146C13.955 55.2455 13.3062 51.6371 13.3091 51.6356C13.8771 51.2795 14.6816 50.465 15.3678 50.4564C16.4692 50.4434 16.8585 51.7077 17.7927 51.0619C18.4832 50.5861 18.8494 49.6505 19.439 49.0637C21.0292 47.4808 22.9177 46.1112 24.6506 44.6869C26.0649 45.3241 27.3119 46.277 28.5301 47.2256C29.0505 47.6336 29.5018 48.1252 30.0308 48.5217C30.2918 48.7148 30.5989 48.9859 30.9204 49.0594C31.3082 49.1488 31.4451 48.8431 31.7897 48.8604C32.8911 48.9138 33.6782 49.9691 34.3832 50.6899C35.3058 51.6313 36.3842 52.4055 37.4092 53.2301C40.7567 55.9332 43.6905 51.9701 46.026 50.0469C47.0193 49.2281 48.7089 47.6769 50.1304 48.1497C51.0545 48.4582 51.474 48.2665 52.2539 47.7259L54.8056 48.0459C54.8056 48.0459 57.2017 47.7259 55.2064 45.092Z" fill="#0A8900"/>
<path fill-rule="evenodd" clip-rule="evenodd" d="M30.0222 66.8768C30.0222 64.0353 27.7199 61.7315 24.8784 61.7315C22.0369 61.7315 19.7346 64.0353 19.7346 66.8768C19.7346 69.7183 22.0369 72.022 24.8784 72.022C27.7199 72.022 30.0222 69.7183 30.0222 66.8768Z" fill="#0A8900"/>
</svg>
