<svg width="89" height="89" viewBox="0 0 89 89" fill="none" xmlns="http://www.w3.org/2000/svg">
<rect width="89" height="89" transform="matrix(1 0 0 -1 0 89)" fill="white"/>
<path d="M79.104 64.6762C78.7806 64.9996 78.3322 65.1855 77.875 65.1855C77.4178 65.1855 76.9694 64.9996 76.646 64.6762C76.3227 64.3529 76.1367 63.9044 76.1367 63.4473C76.1367 62.9901 76.3227 62.5416 76.646 62.2183C76.9694 61.895 77.4178 61.709 77.875 61.709C78.3322 61.709 78.7806 61.895 79.104 62.2183C79.4273 62.5416 79.6133 62.9901 79.6133 63.4473C79.6133 63.9044 79.4273 64.3529 79.104 64.6762Z" fill="url(#paint0_linear)"/>
<path d="M77.875 69.1836C78.8351 69.1836 79.6133 69.9618 79.6133 70.9219V87.2617C79.6133 88.2218 78.8351 89 77.875 89H11.125C10.1649 89 9.38672 88.2218 9.38672 87.2617V1.73828C9.38672 0.778229 10.1649 0 11.125 0H77.875C78.8351 0 79.6133 0.778229 79.6133 1.73828V56.0886C79.6133 57.0487 78.8351 57.8269 77.875 57.8269C76.9149 57.8269 76.1367 57.0487 76.1367 56.0886V46.2164H57.7151C56.8799 52.7551 51.284 57.8269 44.5221 57.8269C37.7602 57.8269 32.1643 52.7549 31.329 46.2164H12.8633V85.5234H21.0332V72.1387C21.0332 71.1786 21.8114 70.4004 22.7715 70.4004H34.2725C36.2917 66.652 40.196 64.2872 44.5221 64.2872C48.8483 64.2872 52.7527 66.652 54.7717 70.4004H66.2285C67.1886 70.4004 67.9668 71.1786 67.9668 72.1387V85.5234H76.1367V70.9219C76.1367 69.9618 76.9149 69.1836 77.875 69.1836ZM53.626 3.52071H35.374V7.60567H53.626V3.52071ZM64.4902 3.52071H57.1025V9.34396C57.1025 10.304 56.3243 11.0822 55.3643 11.0822H33.6357C32.6757 11.0822 31.8975 10.304 31.8975 9.34396V3.52071H24.5098V15.1672H53.6746C53.6759 15.1672 53.6769 15.167 53.6781 15.167C53.6799 15.167 53.6816 15.1672 53.6833 15.1672H64.4902V3.52071ZM38.5064 18.6438C40.0241 20.2963 42.1853 21.2804 44.5221 21.2804C46.859 21.2804 49.0201 20.2963 50.5377 18.6438H38.5064ZM44.5221 54.3503C49.3634 54.3503 53.3955 50.8306 54.201 46.2164H34.843C35.6487 50.8305 39.6808 54.3503 44.5221 54.3503ZM54.1852 42.7396C53.3439 38.1688 49.3324 34.6938 44.5219 34.6938C39.7114 34.6938 35.7 38.1688 34.8586 42.7396H54.1852ZM31.3402 42.7396C32.2143 36.2437 37.7904 31.2173 44.5221 31.2173C51.2537 31.2173 56.8298 36.2435 57.704 42.7396H76.1367V3.47656H67.9668V16.9055C67.9668 17.8655 67.1886 18.6438 66.2285 18.6438H54.7717C52.7527 22.3922 48.8481 24.757 44.5221 24.757C40.196 24.757 36.2917 22.3922 34.2725 18.6438H22.7715C21.8114 18.6438 21.0332 17.8655 21.0332 16.9055V3.47656H12.8633V42.7396H31.3402ZM44.5221 67.7638C42.1853 67.7638 40.0241 68.7478 38.5064 70.4004H50.5377C49.0201 68.7478 46.859 67.7638 44.5221 67.7638ZM64.4902 73.877H53.6726C53.6691 73.877 53.6654 73.877 53.662 73.877H24.5098V85.5234H31.8975V79.656C31.8975 78.696 32.6757 77.9178 33.6357 77.9178H38.8796C39.8397 77.9178 40.6179 78.696 40.6179 79.656C40.6179 80.6161 39.8397 81.3943 38.8796 81.3943H35.374V85.4793H53.626V81.3943H50.1204C49.1603 81.3943 48.3821 80.6161 48.3821 79.656C48.3821 78.696 49.1603 77.9178 50.1204 77.9178H55.3643C56.3243 77.9178 57.1025 78.696 57.1025 79.656V85.5234H64.4902V73.877Z" fill="url(#paint1_linear)"/>
<path d="M45.729 80.8852C45.4056 81.2085 44.9572 81.3945 44.5 81.3945C44.0428 81.3945 43.5944 81.2085 43.271 80.8852C42.9477 80.5619 42.7617 80.1134 42.7617 79.6562C42.7617 79.1973 42.9477 78.7506 43.271 78.4255C43.5944 78.1022 44.0428 77.918 44.5 77.918C44.9572 77.918 45.4056 78.1022 45.729 78.4255C46.0523 78.7506 46.2383 79.1973 46.2383 79.6562C46.2383 80.1134 46.0523 80.5619 45.729 80.8852Z" fill="url(#paint2_linear)"/>
<defs>
<linearGradient id="paint0_linear" x1="77.875" y1="65.1855" x2="77.875" y2="61.709" gradientUnits="userSpaceOnUse">
<stop stop-color="#064D00"/>
<stop offset="1" stop-color="#14CF00"/>
</linearGradient>
<linearGradient id="paint1_linear" x1="44.5" y1="89" x2="44.5" y2="0" gradientUnits="userSpaceOnUse">
<stop stop-color="#064D00"/>
<stop offset="1" stop-color="#14CF00"/>
</linearGradient>
<linearGradient id="paint2_linear" x1="44.5" y1="81.3945" x2="44.5" y2="77.918" gradientUnits="userSpaceOnUse">
<stop stop-color="#064D00"/>
<stop offset="1" stop-color="#14CF00"/>
</linearGradient>
</defs>
</svg>
