<svg width="88" height="87" viewBox="0 0 88 87" fill="none" xmlns="http://www.w3.org/2000/svg">
<g clip-path="url(#clip0)">
<path d="M55.7093 31.5299C55.3896 31.2139 54.9481 31.0322 54.4944 31.0322C54.0425 31.0322 53.5991 31.2139 53.2794 31.5299C52.9597 31.846 52.7759 32.2825 52.7759 32.7311C52.7759 33.178 52.9598 33.6162 53.2794 33.9321C53.5991 34.2482 54.0423 34.43 54.4944 34.43C54.9481 34.43 55.3896 34.2482 55.7093 33.9321C56.0307 33.6162 56.2128 33.178 56.2128 32.7311C56.2128 32.2823 56.0307 31.846 55.7093 31.5299Z" fill="url(#paint0_linear)"/>
<path d="M84.1829 12.3651C83.3603 11.8968 82.3098 12.1762 81.8361 12.9891L74.0414 26.3642C73.3324 26.2756 72.6201 26.2766 71.921 26.3667C71.918 26.3672 71.9153 26.3672 71.9124 26.3677C71.4296 26.4306 70.9528 26.5339 70.4891 26.6838L69.5869 26.975L67.5187 27.5229C66.4661 27.6177 65.3357 27.3701 64.3471 26.806L55.1846 21.573C54.0286 20.9129 53.6314 19.4459 54.2988 18.303L55.9933 15.4013C55.9934 15.4011 55.9936 15.4009 55.9936 15.4006L63.5188 2.55126C63.9942 1.73937 63.7141 0.699958 62.8927 0.229783C62.0715 -0.240052 61.0201 0.0367513 60.5445 0.848809L53.8794 12.2297L53.0963 11.7828C49.7416 9.86777 22.0106 4.76501 16.4853 3.76179C16.4736 3.75958 16.4619 3.75771 16.4503 3.75567C13.152 3.22704 10.0293 4.5803 8.49655 7.20509L5.66886 12.0479C3.70518 15.4101 5.05148 19.8536 8.6545 22.1571L7.97869 23.3146C7.39603 24.3123 7.24117 25.4746 7.54281 26.5876C7.84445 27.7006 8.5665 28.6306 9.57575 29.2066L9.93377 29.411C10.6061 29.7949 11.3521 29.9908 12.1083 29.9908C12.4873 29.9908 12.8687 29.9415 13.2448 29.8418C14.3704 29.5436 15.3112 28.8299 15.8939 27.8321L16.5635 26.6853L20.6114 28.9957C15.1404 30.8005 10.2337 34.1678 6.60025 38.6556C5.73176 39.7284 4.94457 40.858 4.23937 42.0332C4.19365 42.0979 4.15343 42.1661 4.11717 42.2364C2.05415 45.7372 0.727612 49.6377 0.23158 53.6679C0.22247 53.7221 0.215939 53.7765 0.212158 53.8312C0.079298 54.9597 0.010376 56.0976 0.010376 57.24C0.010376 64.9664 3.00479 72.0139 7.90547 77.3097C7.98917 77.4237 8.08628 77.5279 8.19628 77.6185C11.3841 80.9676 15.3453 83.5895 19.796 85.1997C19.8663 85.2294 19.9379 85.2546 20.0112 85.2748C23.1704 86.3909 26.571 87.0007 30.1133 87.0007C34.062 87.0007 37.8346 86.2439 41.2928 84.8714C41.3821 84.843 41.4695 84.8085 41.5533 84.7659C45.7968 83.0358 49.5555 80.3738 52.5673 77.0385C52.6714 76.9473 52.7639 76.8443 52.8428 76.7316C57.4336 71.5062 60.2161 64.6882 60.2161 57.2399C60.2161 56.1417 60.1511 55.0382 60.0301 53.95C60.028 53.926 60.0251 53.9023 60.022 53.8785C60.0057 53.7352 59.9921 53.5915 59.9737 53.4489C59.9717 53.4323 59.9693 53.4159 59.9667 53.3995L59.7692 52.157L60.231 51.366C61.1671 51.6934 62.1273 51.855 63.067 51.855C65.6585 51.855 68.0866 50.6464 69.3774 48.4362L72.2056 43.5932L78.8532 32.21C79.793 30.6003 79.1425 28.4831 77.4027 27.4902C77.3899 27.4829 77.3766 27.4765 77.3636 27.4692L84.8138 14.6851C85.2879 13.8723 85.0053 12.8336 84.1829 12.3651ZM43.1294 12.5067L44.5701 17.8228L42.1102 17.4008L40.636 11.961C41.5013 12.1473 42.3349 12.3296 43.1294 12.5067ZM30.597 9.89988L32.1432 15.605L29.6833 15.1829L28.1196 9.4134C28.9454 9.57465 29.7727 9.7371 30.597 9.89988ZM12.9168 26.1334C12.7931 26.3453 12.5934 26.4969 12.3546 26.5599C12.1157 26.6235 11.8663 26.5908 11.652 26.4685L11.294 26.2641C11.294 26.2641 11.294 26.2641 11.2938 26.2641C11.0797 26.1417 10.9264 25.9443 10.8626 25.7083C10.7985 25.4721 10.8313 25.2253 10.9551 25.0136L11.6247 23.8666L13.5868 24.9866L12.9168 26.1334ZM21.0199 32.4458L17.1089 39.1491L9.40611 40.5793C12.3969 36.943 16.3751 34.0978 21.0199 32.4458ZM26.8087 38.379C28.3176 38.379 29.7873 37.6054 30.5946 36.2232L31.2642 35.0762L35.2364 37.3438C36.6087 38.1272 38.1834 38.3967 39.6699 38.1034C40.3334 37.9724 41.0838 38.1082 41.7286 38.4764L46.4808 41.1888C48.0662 42.0939 49.2879 43.5251 49.8327 45.1159C49.9666 45.5069 50.2397 45.836 50.6012 46.0423L52.2405 46.9781L51.5395 48.1786C50.3365 50.2384 51.0531 52.8817 53.1364 54.0708L53.1365 54.071L53.4944 54.2751C54.025 54.578 54.594 54.7563 55.1671 54.822L48.8161 61.1559L40.3454 59.2757L39.4437 56.5321L37.5141 50.6612L40.449 46.252C40.9707 45.4683 40.751 44.4148 39.9583 43.8989C39.166 43.3836 38.1 43.6004 37.5782 44.3841L34.6984 48.7105H25.5344L20.2174 40.6213L22.794 36.2052C23.1646 36.7729 23.668 37.25 24.2768 37.5975L24.6348 37.8018C25.3199 38.1935 26.0689 38.379 26.8087 38.379ZM25.6559 33.4047L26.3255 32.2579L27.5221 32.9408L28.2877 33.3779L27.6182 34.5247C27.3628 34.9619 26.7954 35.1123 26.3532 34.8601L25.9952 34.6557C25.9952 34.6555 25.995 34.6555 25.9948 34.6555C25.7805 34.5332 25.6274 34.3357 25.5634 34.0997C25.4995 33.8637 25.5321 33.6166 25.6559 33.4047ZM36.9935 60.0725L33.5673 62.5335L30.1412 64.9944L23.2888 60.0725L25.9061 52.1084H34.3762L36.9935 60.0725ZM6.71592 44.5361L17.3887 42.5543L22.7137 50.6557L19.8805 59.2759L12.9242 60.82L11.4196 61.154L3.73354 53.3509C4.19967 50.208 5.2237 47.2325 6.71592 44.5361ZM8.066 72.0528C5.27681 68.0083 3.59484 63.1606 3.45665 57.9394L9.05755 63.6255L8.066 72.0528ZM11.0967 75.7012L12.4248 64.4131L20.4398 62.6339L20.8308 62.547L28.3664 67.9599V75.9566L20.2272 81.724C16.7687 80.3542 13.666 78.2876 11.0967 75.7012ZM30.1131 83.603C28.1354 83.6031 26.208 83.3873 24.3522 82.9816L30.1858 78.848L36.7001 82.7884C34.5926 83.3197 32.3858 83.603 30.1131 83.603ZM40.9018 81.3466L31.8596 75.8771V67.9599L37.4072 63.9752L39.3954 62.5472L39.9372 62.6675L47.8546 64.425L49.6005 75.2149C47.1628 77.7962 44.2085 79.8944 40.9018 81.3466ZM52.4901 71.5626L51.2022 63.6029L56.7653 58.0548C56.6117 63.023 55.0615 67.6491 52.4901 71.5626ZM56.4778 50.9976C56.2224 51.4348 55.6549 51.5854 55.2123 51.3327L54.8544 51.1286C54.4125 50.8759 54.2604 50.3149 54.5155 49.8777L55.1851 48.7307L57.1472 49.8506L56.4778 50.9976ZM60.4682 47.7511L52.851 43.4033C51.9582 41.2753 50.3267 39.4607 48.1994 38.2465L43.4474 35.534C42.07 34.7478 40.4894 34.4767 38.9972 34.7716C38.3391 34.9021 37.595 34.7668 36.9552 34.4015L31.4948 31.2849C31.4947 31.2849 31.4947 31.2848 31.4945 31.2848L29.7976 30.3162L16.795 22.8943C16.7945 22.894 16.7942 22.8937 16.7937 22.8935L11.8553 20.0747C11.855 20.0745 11.8545 20.0743 11.8541 20.0741L10.7651 19.4526C8.63869 18.2386 7.67309 15.8932 8.48108 14.0705C9.20725 15.456 10.3602 16.6873 11.8749 17.5518L38.0655 32.5011C39.4379 33.2844 41.0126 33.5539 42.4992 33.2606C43.1621 33.1288 43.9127 33.2652 44.5577 33.6334L49.3097 36.3459C50.8951 37.2509 52.1168 38.6822 52.6616 40.273C52.7955 40.664 53.0686 40.9931 53.4301 41.1994L61.5784 45.8505C62.9267 46.6201 64.4191 47.0184 65.901 47.0184C66.0079 47.0184 66.1147 47.0148 66.2214 47.0107C65.0606 48.5992 62.5613 48.946 60.4682 47.7511ZM69.2294 41.8945C68.7359 42.7396 67.8736 43.3214 66.8017 43.5333C65.6473 43.7615 64.4024 43.5394 63.2966 42.908L55.6794 38.56C54.7864 36.432 53.1551 34.6174 51.0278 33.4032L46.2754 30.6907C44.8979 29.9045 43.3175 29.634 41.8254 29.9284C41.1675 30.0591 40.4233 29.9237 39.7834 29.5584L13.5928 14.6093C11.3385 13.3225 10.3877 10.7629 11.4736 8.9038C12.2837 7.51673 14.0136 6.81257 15.8838 7.10687C18.4468 7.57229 21.3494 8.11298 24.3649 8.68902L26.6474 17.1109C26.8207 17.7503 27.3537 18.232 28.0133 18.3452L34.205 19.4077C34.3029 19.4247 34.4013 19.4327 34.4989 19.4327C34.9769 19.4327 35.4389 19.2352 35.7673 18.8799C36.163 18.4519 36.3104 17.8541 36.1587 17.2942L34.3588 10.6535C35.2056 10.8253 36.0422 10.9966 36.8623 11.1661L39.0745 19.329C39.2478 19.9685 39.7808 20.4502 40.4404 20.5634L46.6321 21.6259C46.73 21.6429 46.8284 21.6509 46.926 21.6509C47.404 21.6509 47.866 21.4534 48.1944 21.0981C48.5901 20.6701 48.7375 20.0723 48.5858 19.5124L46.9265 13.3899C49.2387 13.9564 50.849 14.4236 51.3779 14.7253L52.1592 15.1712L51.3224 16.6042C49.7076 19.3691 50.6689 22.9181 53.4655 24.5152L61.5161 29.113L59.0554 29.7648C58.1388 30.0078 57.5948 30.9393 57.8402 31.8455C58.046 32.6045 58.7402 33.1053 59.499 33.1053C59.6461 33.1053 59.796 33.0864 59.9449 33.0469L68.156 30.8717C68.6323 30.8083 69.1027 30.7055 69.5606 30.5575L70.5638 30.2336L72.4919 29.7228C73.5498 29.6195 74.689 29.8651 75.6842 30.4331C75.7725 30.4836 75.8169 30.5429 75.8366 30.5801L69.2294 41.8945Z" fill="url(#paint1_linear)"/>
<path d="M87.4879 7.57404C87.1682 7.25799 86.7249 7.07617 86.2729 7.07617C85.8209 7.07617 85.3776 7.25799 85.0579 7.57404C84.7382 7.88993 84.5545 8.32816 84.5545 8.77505C84.5545 9.22365 84.7384 9.66018 85.0579 9.97623C85.3776 10.2923 85.8209 10.4739 86.2729 10.4739C86.7248 10.4739 87.1682 10.2923 87.4879 9.97623C87.8076 9.66001 87.9913 9.22212 87.9913 8.77505C87.9913 8.32833 87.8074 7.88993 87.4879 7.57404Z" fill="url(#paint2_linear)"/>
</g>
<defs>
<linearGradient id="paint0_linear" x1="54.4943" y1="31.0322" x2="54.4943" y2="34.43" gradientUnits="userSpaceOnUse">
<stop stop-color="#14CF00"/>
<stop offset="1" stop-color="#064D00"/>
</linearGradient>
<linearGradient id="paint1_linear" x1="42.5271" y1="0.000976562" x2="42.5271" y2="87.0007" gradientUnits="userSpaceOnUse">
<stop stop-color="#14CF00"/>
<stop offset="1" stop-color="#064D00"/>
</linearGradient>
<linearGradient id="paint2_linear" x1="86.2729" y1="7.07617" x2="86.2729" y2="10.4739" gradientUnits="userSpaceOnUse">
<stop stop-color="#14CF00"/>
<stop offset="1" stop-color="#064D00"/>
</linearGradient>
<clipPath id="clip0">
<rect width="88" height="87" fill="white"/>
</clipPath>
</defs>
</svg>
